{
    "iLoginId": "keith.kk.mak@pccw.com",
    "iSubnRec": {
        "tos": "",
        "alias": "",
        "ref_fsa_2l2b": "",
        "lastupd_ts": "",
        "assoc": "",
        "ind_2l2b": "",
        "systy": "",
        "domain_ty": "",
        "cus_num": "",
        "create_psn": "",
        "acct_ty": "",
        "wip_cust": "",
        "bsn": "",
        "fsa": "",
        "ivr_pwd": "",
        "ind_eye": "",
        "lastupd_psn": "",
        "tariff": "",
        "net_login_id": "",
        "eye_grp": "",
        "dat_cd": "",
        "eff_enddate": "",
        "lob": "",
        "ind_pcd": "",
        "create_ts": "",
        "srv_id": "",
        "inst_addr": "",
        "pri_login_ind": "",
        "acct_num": "",
        "auth_ph": "",
        "line_status": "",
        "pri_mob": "",
        "store_ty": "",
        "cust_rid": 0,
        "rev": 0,
        "rid": 0,
        "sip_subr": "",
        "eff_begdate": "",
        "srv_num": "",
        "ind_tv": ""
    },
    "oMobUsage": {
        "ratePlan": {
            "srvCd": "MRP0022222",
            "fee": "389.0",
            "desnEn": "Monthly Mobile Service Fee",
            "desnZh": "基本通話月費",
            "longDesn1En": "",
            "longDesn2En": "",
            "longDesn1Zh": "",
            "longDesn2Zh": "",
            "tncEn": "",
            "tncZh": "",
            "usg": "",
            "usgStDt": "",
            "usgEnDt": "",
            "usgUnt": "",
            "StDt": "",
            "EnDt": "",
            "srvCmmtPrd": "",
            "srvPenalty": "",
            "srvCmmtRemn": "",
            "srvEnt": "",
            "rebtEn": "",
            "rebtZh": "",
            "rebtAmt": "",
            "monthlyTermRate": "",
            "m2mRate": "",
            "plnTy": "",
            "plnSubTy": "",
            "cntrStDt": "",
            "cntrEnDt": "",
            "cntrDur": "",
            "cmmtInd": "",
            "seasInd": "",
            "suppInd": "",
            "summInd": ""
        },
        "g3DisplayServiceItemResultDTO": {
            "acctType": "nornal",
            "rtnCode": "0",
            "rtnMsg": "Operation succeeded",
            "displayServiceItemList": [
                {
                    "titleLevel1Chi": "本地流動數據",
                    "additionalMessage": {},
                    "titleLevel1Eng": "Local Mobile Data",
                    "allowTopup": "Y",
                    "quotaTopupInfo": {
                        "initialQuotaInKB": 5242880,
                        "quotaValidityPeriod": "B",
                        "pcrfServiceName": "Local_Quota_3G_1",
                        "pcrfServiceType": "Local Topup Plan",
                        "topupQuotaName": "Quota_LocalQuota3G1",
                        "displayNameInEnglish": "Local Mobile Data"
                    },
                    "asOfDateEng": "Latest update",
                    "show": "Y",
                    "usageBar": {
                        "showBar": "Y",
                        "barPercent": 100,
                        "colorB": 0,
                        "colorG": 204,
                        "colorR": 0
                    },
                    "otherVAS": "N",
                    "showInMainPage": "Y",
                    "displayOrder": 10,
                    "serviceType": "Local Topup Plan",
                    "region": "LOCAL",
                    "planType": "BASIC",
                    "usageDescription": {
                        "textColorG": 0,
                        "showWarningIcon": "N",
                        "textColorR": 0,
                        "textChi": "尚餘: 100% (5,120MB)",
                        "textEng": "100% (5,120MB) Remaining",
                        "textColorB": 0,
                        "htmlChi": "尚餘: 100% (5,120MB)",
                        "htmlEng": "100% (5,120MB)Remaining"
                    },
                    "asOfDateChi": "最新紀錄",
                    "refInfo": {
                        "quotaServiceItemList": []
                    },
                    "usageType": "QUOTA-BASED"
                },
                {
                    "titleLevel1Chi": "漫遊流動數據",
                    "titleLevel2Chi": "日費計劃",
                    "additionalMessage": {},
                    "titleLevel1Eng": "Roaming Mobile Data",
                    "titleLevel2Eng": "Day Pass",
                    "allowTopup": "N",
                    "asOfDateEng": "",
                    "quotaTopupInfo": {
                        "initialQuotaInKB": 20480,
                        "quotaValidityPeriod": "D",
                        "pcrfServiceName": "Roaming_QuotaDayP_3G_3",
                        "pcrfServiceType": "Roaming All-In-One DayPass",
                        "topupQuotaName": "Quota_RoamQuotaDP3G3",
                        "displayNameInEnglish": "Roaming Mobile Data"
                    },
                    "show": "Y",
                    "usageBar": {
                        "showBar": "N",
                        "barPercent": 100,
                        "colorB": 0,
                        "colorG": 204,
                        "colorR": 0
                    },
                    "showInMainPage": "Y",
                    "displayOrder": 10,
                    "serviceType": "Roaming All-In-One DayPass",
                    "region": "ROAMING",
                    "planType": "BASIC",
                    "usageDescription": {
                        "textColorG": 0,
                        "showWarningIcon": "N",
                        "textColorR": 0,
                        "textChi": "尚餘 0% (0MB) ",
                        "textEng": "0% (0MB) Remaining",
                        "textColorB": 0,
                        "htmlChi": "尚餘 0% (0MB) ",
                        "htmlEng": "0% (0MB) Remaining"
                    },
                    "asOfDateChi": "",
                    "refInfo": {
                        "quotaServiceItemList": []
                    },
                    "usageType": "QUOTA-BASED"
                },
                {
                    "allowTopup": "N",
                    "region": "ROAMING",
                    "asOfDateEng": "",
                    "quotaTopupInfo": {},
                    "additionalMessage": {},
                    "showInMainPage": "Y",
                    "refInfo": {
                        "entitlementUsedUsage": "0",
                        "entitlementValue": "60",
                        "quotaServiceItemList": [],
                        "entitlementUnit": "mins"
                    },
                    "otherVAS": "N",
                    "displayOrder": 10000,
                    "planType": "OTHER",
                    "show": "Y",
                    "usageDescription": {
                        "textColorG": 0,
                        "showWarningIcon": "N",
                        "textColorR": 0,
                        "textChi": "已用用量: 0分鐘 | 可享用量: 0分鐘",
                        "textEng": "Used: 0mins | Entitled: 0mins",
                        "textColorB": 0,
                        "htmlChi": "已用用量: 0分鐘 | 可享用量: 0分鐘",
                        "htmlEng": "Used: 0mins | Entitled: 0mins"
                    },
                    "usageType": "ENTITLEMENT-BASED",
                    "serviceType": "Roaming WIFI Day Pass",
                    "titleLevel1Chi": "WiFi漫遊",
                    "usageBar": {
                        "showBar": "N",
                        "barPercent": 100,
                        "colorB": 0,
                        "colorG": 204,
                        "colorR": 0
                    },
                    "titleLevel2Chi": "日費計劃",
                    "titleLevel1Eng": "Roaming WiFi",
                    "titleLevel2Eng": "Day Pass",
                    "asOfDateChi": ""
                }
            ]
        },
        "g3UsageQuotaDTO": {
            "overseasSMSEntitlement": "0",
            "moovUsage": "0",
            "overseasSMSUsage": "0",
            "localVideoIntraUnit": "mins",
            "localSMSIntraEntitlement": "Unlimit",
            "emailEntitlement": "0",
            "localMMSIntraEntitlement": "300",
            "moovEntitlement": "Unlimit",
            "localVoiceIntraUsage": "0",
            "overseasMMSUsage": "0",
            "localSMSInterEntitlement": "0",
            "localMMSIntraUsage": "0",
            "emailUsage": "0",
            "localVoicePeakOffpeakBasedInd": "N",
            "localVoiceInterUsage": "999994",
            "overseasMMSEntitlement": "0",
            "localVideoIntraUsage": "0",
            "localVoiceIntraEntitlement": "0",
            "localMMSInterEntitlement": "0",
            "localSMSInterUsage": "5656565",
            "localVoiceInterUnit": "mins",
            "nowTVEntitlement": "Unlimit",
            "localVoiceInterEntitlement": "Unlimit",
            "localVideoInterUsage": "0",
            "localVideoIntraEntitlement": "300",
            "localVoicePeakEntitlement": "0",
            "localVoiceOffPeakUsage": "0",
            "nowSportsUsage": "0",
            "localMMSInterUsage": "0",
            "localVideoInterEntitlement": "0",
            "mobileLocalDataUsage": "MB",
            "mobileLocalDataUnit": "1238",
            "nonMobileUsageEntitlementRtnCode": "0",
            "localVideoInterUnit": "mins",
            "localVoicePeakUnit": "mins",
            "localVoiceOffPeakEntitlement": "0",
            "nowTVUsage": "0",
            "nonMobileUsageEntitlementRtnMsg": "",
            "nowSportsUnit": "mins",
            "nowSportsEntitlement": "0",
            "moovUnit": "mins",
            "localVoiceIntraUnit": "mins",
            "nowTVUnit": "mins",
            "localVoicePeakUsage": "0",
            "asOfDate": "2016-01-28",
            "localSMSIntraUsage": "0",
            "iddVoiceUsage": "0",
            "iddVoiceEntitlement": "Unlimit",
            "iddVoiceUnit": "mins",
            "localBBUsage": "123213",
            "localBBEntitlement": "0",
            "localBBUnit": "mins",
            "roamBBUsage": "0",
            "roamBBEntitlement": "0",
            "roamBBUnit": "mins",
            "roamSMSUsage": "0",
            "roamSMSEntitlement": "0",
            "dataAsOfDate": "2016-02-21",
            "primaryFlag": "P",
            "nxtBilCutoffDt": "2016-02-27"
        },
        "g3SummUsageQuotaDTO": {
            "overseasSMSEntitlement": "0",
            "moovUsage": "0",
            "overseasSMSUsage": "0",
            "localVideoIntraUnit": "mins",
            "localSMSIntraEntitlement": "Unlimit",
            "emailEntitlement": "0",
            "localMMSIntraEntitlement": "300",
            "moovEntitlement": "Unlimit",
            "localVoiceIntraUsage": "0",
            "overseasMMSUsage": "0",
            "localSMSInterEntitlement": "0",
            "localMMSIntraUsage": "0",
            "emailUsage": "0",
            "localVoicePeakOffpeakBasedInd": "N",
            "localVoiceInterUsage": "999994",
            "overseasMMSEntitlement": "0",
            "localVideoIntraUsage": "0",
            "localVoiceIntraEntitlement": "0",
            "localMMSInterEntitlement": "0",
            "localSMSInterUsage": "5656565",
            "localVoiceInterUnit": "mins",
            "nowTVEntitlement": "Unlimit",
            "localVoiceInterEntitlement": "Unlimit",
            "localVideoInterUsage": "0",
            "localVideoIntraEntitlement": "300",
            "localVoicePeakEntitlement": "0",
            "localVoiceOffPeakUsage": "0",
            "nowSportsUsage": "0",
            "localMMSInterUsage": "0",
            "localVideoInterEntitlement": "0",
            "mobileLocalDataUsage": "MB",
            "mobileLocalDataUnit": "1238",
            "nonMobileUsageEntitlementRtnCode": "0",
            "localVideoInterUnit": "mins",
            "localVoicePeakUnit": "mins",
            "localVoiceOffPeakEntitlement": "0",
            "nowTVUsage": "0",
            "nonMobileUsageEntitlementRtnMsg": "",
            "nowSportsUnit": "mins",
            "nowSportsEntitlement": "0",
            "moovUnit": "mins",
            "localVoiceIntraUnit": "mins",
            "nowTVUnit": "mins",
            "localVoicePeakUsage": "0",
            "asOfDate": "2016-01-28",
            "localSMSIntraUsage": "0",
            "iddVoiceUsage": "0",
            "iddVoiceEntitlement": "Unlimit",
            "iddVoiceUnit": "mins",
            "localBBUsage": "123213",
            "localBBEntitlement": "0",
            "localBBUnit": "mins",
            "roamBBUsage": "0",
            "roamBBEntitlement": "0",
            "roamBBUnit": "mins",
            "roamSMSUsage": "0",
            "roamSMSEntitlement": "0",
            "dataAsOfDate": "2016-02-21",
            "primaryFlag": "P",
            "nxtBilCutoffDt": "2016-02-27"
        },
        "g3AcctBomNextBillDateDTO": {
            "result": {},
            "acctNum": "",
            "bomNextBillDate": "10/02/2016",
            "bomStartBillDate": "10/01/2016"
        }
    },
    "iApi": "PLAN_MOB",
    "serverTS": "20160127121212",
    "reply": {
        "code": "RC_SUCC",
        "cargo": null
    }
}