{
	"iLoginId": "asdfg12345@pccw.com",
	"iSubnRec": {
		"rid": 3328,
		"custRid": 1325,
		"cusNum": "24000019",
		"acctNum": "24000019000768",
		"srvId": "100132360",
		"srvNum": "36680368",
		"bsn": " ",
		"fsa": " ",
		"lob": "LTS",
		"wipCust": "N",
		"sipSubr": " ",
		"netLoginId": " ",
		"aloneDialup": " ",
		"eyeGrp": " ",
		"ind2l2b": " ",
		"refFsa2l2b": " ",
		"indPcd": " ",
		"indTv": " ",
		"indEye": "N",
		"domainTy": " ",
		"tos": "TEL",
		"datCd": "DEL",
		"tariff": "R",
		"priMob": " ",
		"systy": "DRG",
		"alias": " ",
		"assoc": "Y",
		"createTs": "20151127163349",
		"createPsn": "dldsbat",
		"lastupdTs": "20160215220541",
		"lastupdPsn": "asdfg12345@pccw.com",
		"rev": 2,
		"instAdr": "FT 4 4/F TEST CASE 3001 BLDG, NORTH POINT HONG KONG",
		"storeTy": "",
		"ivr_pwd": null,
		"auth_ph": null,
		"acct_ty": null
	},
	"oTermPlanAry": [{
		"srvCd": "1SV7",
		"StDt": "20150930",
		"EnDt": "20170929",
		"fee": "",
		"desnEn": "",
		"desnZh": "",
		"longDesn1En": "Fixed Term Service Plan - Rebate Fixed Term Plan",
		"longDesn2En": "",
		"longDesn1Zh": "合約固定期服務計劃 - 回贈固定期計劃",
		"longDesn2Zh": "",
		"tncEn": "",
		"tncZh": "",
		"usg": "",
		"usgStDt": "",
		"usgEnDt": "",
		"usgUnt": "",
		"srvCmmtPrd": "24",
		"srvPenalty": "",
		"srvCmmtRmn": "",
		"srvEnt": "",
		"rebtEn": "$72 rebate for 4th, 7th, 10th, 13th 16th and 19th month",
		"rebtZh": "$72 回贈 (第4, 第7, 第10, 第13, 第16及第19個月)",
		"rebtAmt": "0@0|1@0|2@0|3@72|4@0|5@0|6@72|7@0|8@0|9@72|10@0|11@0|12@72|13@0|14@0|15@72|16@0|17@0|18@72",
		"monthlyTermRate": "128",
		"m2mRate": "",
		"plnTy": "",
		"plnSubTy": "",
		"cntrStDt": "",
		"cntrEnDt": "",
		"cntrDur": "",
		"cmmtInd": "",
		"seasInd": "",
		"suppInd": "",
		"summInd": ""
	}],
	"oCallPlanAry": [{
		"srvCd": "UM+2",
		"StDt": "",
		"EnDt": "",
		"fee": "+000000160.00",
		"desnEn": "TERMPLANUM+2",
		"desnZh": "TERMPLANUM+2(ZH)",
		"longDesn1En": "TermPlanminutesapplytocallingthebelowdestinationsfromHongKongviaregisteredmobilenumber: ",
		"longDesn2En": "FixedlineandmobilenumberofChina/USA/CanadaandfixedlinenumberofAustraliaandUK",
		"longDesn1Zh": "TermPlanminutesapplytocallingthebelowdestinationsfromHongKongviaregisteredmobilenumber: (zh)",
		"longDesn2Zh": "FixedlineandmobilenumberofChina/USA/CanadaandfixedlinenumberofAustraliaandUK(zh)",
		"tncEn": "Planminutesareofferedonaper-minutebasis.Anyunusedminutescannotbecarriedforwardtosubsequentmonth.PlanminutesdonotapplytocallsmadefromPCCWmobilerechargeableSIMcard,            PCCWHelloprepaidSIMcardandcallsmadetotelephonenumberswithprefixes\u002756\u0027,            \u00277\u0027,            \u00278\u0027and\u00279\u0027intheUK.",
		"tncZh": "Planminutesareofferedonaper-minutebasis.Anyunusedminutescannotbecarriedforwardtosubsequentmonth.PlanminutesdonotapplytocallsmadefromPCCWmobilerechargeableSIMcard,            PCCWHelloprepaidSIMcardandcallsmadetotelephonenumberswithprefixes\u002756\u0027,            \u00277\u0027,            \u00278\u0027and\u00279\u0027intheUK.(zh)",
		"usg": "+000000000.00",
		"usgStDt": "20130401",
		"usgEnDt": "00000000",
		"usgUnt": "",
		"srvCmmtPrd": "",
		"srvPenalty": "",
		"srvCmmtRmn": "",
		"srvEnt": "00160",
		"rebtEn": "",
		"rebtZh": "",
		"rebtAmt": "",
		"monthlyTermRate": "",
		"m2mRate": "",
		"plnTy": "CM",
		"plnSubTy": "1",
		"cntrStDt": "20120301",
		"cntrEnDt": "20120401",
		"cntrDur": "01",
		"cmmtInd": "",
		"seasInd": "",
		"suppInd": "",
		"summInd": ""
	}, {
		"srvCd": "UM8(",
		"StDt": "20120501",
		"EnDt": "00000000",
		"fee": "+000000140.00",
		"desnEn": "TERMPLANUM8(",
		"desnZh": "TERMPLANUM8((ZH)",
		"longDesn1En": "TermPlanminutesapplytocallingthebelowdestinationsfromHongKongviaregisteredmobilenumber: ",
		"longDesn2En": "FixedlineandmobilenumberofChina/USA/CanadaandfixedlinenumberofAustraliaandUK",
		"longDesn1Zh": "TermPlanminutesapplytocallingthebelowdestinationsfromHongKongviaregisteredmobilenumber:  (zh)",
		"longDesn2Zh": "FixedlineandmobilenumberofChina/USA/CanadaandfixedlinenumberofAustraliaandUK(zh)",
		"tncEn": "TermPlanminutesareofferedonaper-minutebasis.Anyunusedminutescannotbecarriedforwardtosubsequentmonth.PlanminutesdonotapplytocallsmadefromPCCWmobilerechargeableSIMcard,            PCCWHelloprepaidSIMcardandcallsmadetotelephonenumberswithprefixes\u002756\u0027,            \u00277\u0027,            \u00278\u0027and\u00279\u0027intheUK.",
		"tncZh": "TermPlanminutesareofferedonaper-minutebasis.Anyunusedminutescannotbecarriedforwardtosubsequentmonth.PlanminutesdonotapplytocallsmadefromPCCWmobilerechargeableSIMcard,            PCCWHelloprepaidSIMcardandcallsmadetotelephonenumberswithprefixes\u002756\u0027,            \u00277\u0027,            \u00278\u0027and\u00279\u0027intheUK.(zh)",
		"usg": "+000000000.00",
		"usgStDt": "20130401",
		"usgEnDt": "20130430",
		"usgUnt": "",
		"srvCmmtPrd": "",
		"srvPenalty": "",
		"srvCmmtRmn": "",
		"srvEnt": "00140",
		"rebtEn": "",
		"rebtZh": "",
		"rebtAmt": "",
		"monthlyTermRate": "",
		"m2mRate": "",
		"plnTy": "CM",
		"plnSubTy": "1",
		"cntrStDt": "20120501",
		"cntrEnDt": "20120601",
		"cntrDur": "01",
		"cmmtInd": "",
		"seasInd": "",
		"suppInd": "",
		"summInd": ""
	}],
	"oIAdr": "",
	"iApi": "PLAN_LTS",
	"iGwtGud": "AF860DDFED744FE2",
	"iMyFrm": "",
	"oHgg": "",
	"oNxUrl": "",
	"oDuct": null,
	"reply": {
		"code": "RC_SUCC",
		"cargo": null
	},
	"serverTS": "20160216192708"
}