﻿{
    "image_list": [
        {
            "key": "main_top_banner",
            "en_img": "images/en/main_top_banner.png",
            "zh_img": "images/zh/main_top_banner.png"
        }
    ],
    "common_config": {
        "livechat_consumer_flag":"Y",
        "livechat_premier_flag":"N"
    }
}