{
  "acctNum":"",
  "acct_ty":"",
  "alias":"",
  "aloneDialup":"",
  "assoc":"",
  "auth_ph":"",
  "billagt":"",
  "bsn":"",
  "createPsn":"",
  "createTs":"",
  "cusNum":"",
  "custRid":0,
  "datCd":"",
  "domainTy":"",
  "eyeGrp":"",
  "fsa":"",
  "inMipMig":false,
  "ind2l2b":"",
  "indEye":"",
  "indPcd":"",
  "indTv":"",
  "instAdr":"",
  "ivr_pwd":"",
  "lastupdPsn":"",
  "lastupdTs":"",
  "lob":"PCD",
  "netLoginId":"",
  "priMob":"",
  "refFsa2l2b":"",
  "rev":0,
  "rid":0,
  "sipSubr":"",
  "srvId":"",
  "srvNum":"751001753863217",
  "storeTy":"",
  "systy":"",
  "tariff":"",
  "tos":"",
  "wipCust":""
}