{
  "createPsn":"",
  "createTs":"",
  "ctMail":"greenteaworld1990@gmail.com",
  "ctMob":"54728531",
  "custRid":0,
  "lang":"en",
  "lastupdPsn":"",
  "lastupdTs":"",
  "loginId":"greenteaworld1990@gmail.com",
  "mobAlrt":"Y",
  "nickname":"pccwuser",
  "promoOpt":"",
  "pwd":"Aa12345",
  "pwdEff":"",
  "regnActn":"",
  "rev":0,
  "rid":0,
  "salesChnl":"",
  "secAns":"",
  "secQus":0,
  "staffId":"",
  "state":"",
  "stateUpTs":"",
  "status":"",
  "teamCd":""
}