{
  "iLoginId": "csimtest001@abc.com",
  "iSubnRec": {
    "rid": 90021,
    "custRid": 26608,
    "cusNum": " ",
    "acctNum": "90657073",
    "srvId": "60530731",
    "srvNum": "60530731",
    "bsn": " ",
    "fsa": " ",
    "lob": "O2F",
    "wipCust": " ",
    "sipSubr": " ",
    "netLoginId": " ",
    "aloneDialup": " ",
    "eyeGrp": " ",
    "ind2l2b": " ",
    "refFsa2l2b": " ",
    "indPcd": " ",
    "indTv": " ",
    "indEye": " ",
    "domainTy": " ",
    "tos": "CSL",
    "datCd": " ",
    "tariff": " ",
    "priMob": " ",
    "systy": "CSL",
    "alias": "lkjhgfdsaqwertyu",
    "assoc": "Y",
    "createTs": "20160317164713",
    "createPsn": "acspbat",
    "lastupdTs": "20160525113653",
    "lastupdPsn": "csimtest001@abc.com",
    "rev": 7,
    "instAdr": "",
    "storeTy": "",
    "ivr_pwd": null,
    "auth_ph": null,
    "acct_ty": null
  },
  "iTopupItem": {
    "region": null,
    "serviceType": null,
    "show": null,
    "showInMainPage": null,
    "displayOrder": 0,
    "titleLevel1Eng": null,
    "titleLevel1Chi": null,
    "titleLevel2Eng": null,
    "titleLevel2Chi": null,
    "titleLevel1Display": null,
    "titleLevel2Display": null,
    "planType": null,
    "usageDescription": {
      "showWarningIcon": null,
      "textDisplay": null,
      "wapEntitleDisplay": [],
      "textEng": null,
      "textChi": null,
      "textColorR": 0,
      "textColorG": 0,
      "textColorB": 0,
      "htmlEng": null,
      "htmlChi": null
    },
    "usageBar": {
      "showBar": null,
      "colorR": 0,
      "colorG": 0,
      "colorB": 0,
      "barPercent": 0
    },
    "asOfDateEng": null,
    "asOfDateChi": null,
    "asOfDateDisplay": null,
    "additionalMessage": {
      "textEng": null,
      "textChi": null,
      "textColorR": 0,
      "textColorG": 0,
      "textColorB": 0,
      "htmlEng": null,
      "htmlChi": null
    },
    "usageType": null,
    "allowTopup": null,
    "otherVAS": null,
    "quotaTopupInfo": {
      "topupQuotaName": null,
      "quotaValidityPeriod": null,
      "initialQuotaInKB": 0,
      "pcrfServiceName": null,
      "pcrfServiceType": null,
      "displayNameInEnglish": null
    },
    "refInfo": {
      "quotaServiceItemList": [],
      "entitlementserviceType": null,
      "entitlementUnit": null,
      "entitlementValue": null,
      "entitlementUsedUsage": null,
      "roamingWiFiInScopeUsageInMins": null,
      "roamingWiFiFreeEntitlementInMins": null
    }
  },
  "iBstUpOff": {
    "boostUpOfferId": null,
    "rechargeValue": null,
    "rechargeValueInMB": null,
    "rechargeAmount": null,
    "rechargeAmountDisplay": null,
    "engDescription": null,
    "chiDescription": null,
    "displayDescription": null,
    "quotaName": null,
    "valPeriod": null
  },
  "iTopupActn": "",
  "iBstUpHistStDt": "",
  "iBstUpHistEnDt": "",
  "oMobUsage": {
    "entBased": false,
    "ratePlan": {
      "srvCd": "",
      "StDt": "",
      "EnDt": "",
      "fee": "",
      "desnEn": "",
      "desnZh": "",
      "longDesn1En": "",
      "longDesn2En": "",
      "longDesn1Zh": "",
      "longDesn2Zh": "",
      "tncEn": "",
      "tncZh": "",
      "usg": "",
      "usgStDt": "",
      "usgEnDt": "",
      "usgUnt": "",
      "srvCmmtPrd": "",
      "srvPenalty": "",
      "srvCmmtRmn": "",
      "srvEnt": "",
      "rebtEn": "",
      "rebtZh": "",
      "rebtAmt": "",
      "monthlyTermRate": "",
      "m2mRate": "",
      "plnTy": "",
      "plnSubTy": "",
      "cntrStDt": "",
      "cntrEnDt": "",
      "cntrDur": "",
      "cmmtInd": "",
      "seasInd": "",
      "suppInd": "",
      "summInd": ""
    },
    "localData": {
      "srvCd": "",
      "StDt": "",
      "EnDt": "",
      "fee": "",
      "desnEn": "",
      "desnZh": "",
      "longDesn1En": "",
      "longDesn2En": "",
      "longDesn1Zh": "",
      "longDesn2Zh": "",
      "tncEn": "",
      "tncZh": "",
      "usg": "",
      "usgStDt": "",
      "usgEnDt": "",
      "usgUnt": "",
      "srvCmmtPrd": "",
      "srvPenalty": "",
      "srvCmmtRmn": "",
      "srvEnt": "",
      "rebtEn": "",
      "rebtZh": "",
      "rebtAmt": "",
      "monthlyTermRate": "",
      "m2mRate": "",
      "plnTy": "",
      "plnSubTy": "",
      "cntrStDt": "",
      "cntrEnDt": "",
      "cntrDur": "",
      "cmmtInd": "",
      "seasInd": "",
      "suppInd": "",
      "summInd": ""
    },
    "lVceIter": {
      "srvCd": "",
      "StDt": "",
      "EnDt": "",
      "fee": "",
      "desnEn": "",
      "desnZh": "",
      "longDesn1En": "",
      "longDesn2En": "",
      "longDesn1Zh": "",
      "longDesn2Zh": "",
      "tncEn": "",
      "tncZh": "",
      "usg": "",
      "usgStDt": "",
      "usgEnDt": "",
      "usgUnt": "",
      "srvCmmtPrd": "",
      "srvPenalty": "",
      "srvCmmtRmn": "",
      "srvEnt": "",
      "rebtEn": "",
      "rebtZh": "",
      "rebtAmt": "",
      "monthlyTermRate": "",
      "m2mRate": "",
      "plnTy": "",
      "plnSubTy": "",
      "cntrStDt": "",
      "cntrEnDt": "",
      "cntrDur": "",
      "cmmtInd": "",
      "seasInd": "",
      "suppInd": "",
      "summInd": ""
    },
    "lVceItra": {
      "srvCd": "",
      "StDt": "",
      "EnDt": "",
      "fee": "",
      "desnEn": "",
      "desnZh": "",
      "longDesn1En": "",
      "longDesn2En": "",
      "longDesn1Zh": "",
      "longDesn2Zh": "",
      "tncEn": "",
      "tncZh": "",
      "usg": "",
      "usgStDt": "",
      "usgEnDt": "",
      "usgUnt": "",
      "srvCmmtPrd": "",
      "srvPenalty": "",
      "srvCmmtRmn": "",
      "srvEnt": "",
      "rebtEn": "",
      "rebtZh": "",
      "rebtAmt": "",
      "monthlyTermRate": "",
      "m2mRate": "",
      "plnTy": "",
      "plnSubTy": "",
      "cntrStDt": "",
      "cntrEnDt": "",
      "cntrDur": "",
      "cmmtInd": "",
      "seasInd": "",
      "suppInd": "",
      "summInd": ""
    },
    "lVdoIter": {
      "srvCd": "",
      "StDt": "",
      "EnDt": "",
      "fee": "",
      "desnEn": "",
      "desnZh": "",
      "longDesn1En": "",
      "longDesn2En": "",
      "longDesn1Zh": "",
      "longDesn2Zh": "",
      "tncEn": "",
      "tncZh": "",
      "usg": "",
      "usgStDt": "",
      "usgEnDt": "",
      "usgUnt": "",
      "srvCmmtPrd": "",
      "srvPenalty": "",
      "srvCmmtRmn": "",
      "srvEnt": "",
      "rebtEn": "",
      "rebtZh": "",
      "rebtAmt": "",
      "monthlyTermRate": "",
      "m2mRate": "",
      "plnTy": "",
      "plnSubTy": "",
      "cntrStDt": "",
      "cntrEnDt": "",
      "cntrDur": "",
      "cmmtInd": "",
      "seasInd": "",
      "suppInd": "",
      "summInd": ""
    },
    "lVdoItra": {
      "srvCd": "",
      "StDt": "",
      "EnDt": "",
      "fee": "",
      "desnEn": "",
      "desnZh": "",
      "longDesn1En": "",
      "longDesn2En": "",
      "longDesn1Zh": "",
      "longDesn2Zh": "",
      "tncEn": "",
      "tncZh": "",
      "usg": "",
      "usgStDt": "",
      "usgEnDt": "",
      "usgUnt": "",
      "srvCmmtPrd": "",
      "srvPenalty": "",
      "srvCmmtRmn": "",
      "srvEnt": "",
      "rebtEn": "",
      "rebtZh": "",
      "rebtAmt": "",
      "monthlyTermRate": "",
      "m2mRate": "",
      "plnTy": "",
      "plnSubTy": "",
      "cntrStDt": "",
      "cntrEnDt": "",
      "cntrDur": "",
      "cmmtInd": "",
      "seasInd": "",
      "suppInd": "",
      "summInd": ""
    },
    "lSMSIter": {
      "srvCd": "",
      "StDt": "",
      "EnDt": "",
      "fee": "",
      "desnEn": "",
      "desnZh": "",
      "longDesn1En": "",
      "longDesn2En": "",
      "longDesn1Zh": "",
      "longDesn2Zh": "",
      "tncEn": "",
      "tncZh": "",
      "usg": "",
      "usgStDt": "",
      "usgEnDt": "",
      "usgUnt": "",
      "srvCmmtPrd": "",
      "srvPenalty": "",
      "srvCmmtRmn": "",
      "srvEnt": "",
      "rebtEn": "",
      "rebtZh": "",
      "rebtAmt": "",
      "monthlyTermRate": "",
      "m2mRate": "",
      "plnTy": "",
      "plnSubTy": "",
      "cntrStDt": "",
      "cntrEnDt": "",
      "cntrDur": "",
      "cmmtInd": "",
      "seasInd": "",
      "suppInd": "",
      "summInd": ""
    },
    "lSMSItra": {
      "srvCd": "",
      "StDt": "",
      "EnDt": "",
      "fee": "",
      "desnEn": "",
      "desnZh": "",
      "longDesn1En": "",
      "longDesn2En": "",
      "longDesn1Zh": "",
      "longDesn2Zh": "",
      "tncEn": "",
      "tncZh": "",
      "usg": "",
      "usgStDt": "",
      "usgEnDt": "",
      "usgUnt": "",
      "srvCmmtPrd": "",
      "srvPenalty": "",
      "srvCmmtRmn": "",
      "srvEnt": "",
      "rebtEn": "",
      "rebtZh": "",
      "rebtAmt": "",
      "monthlyTermRate": "",
      "m2mRate": "",
      "plnTy": "",
      "plnSubTy": "",
      "cntrStDt": "",
      "cntrEnDt": "",
      "cntrDur": "",
      "cmmtInd": "",
      "seasInd": "",
      "suppInd": "",
      "summInd": ""
    },
    "iSMS": {
      "srvCd": "",
      "StDt": "",
      "EnDt": "",
      "fee": "",
      "desnEn": "",
      "desnZh": "",
      "longDesn1En": "",
      "longDesn2En": "",
      "longDesn1Zh": "",
      "longDesn2Zh": "",
      "tncEn": "",
      "tncZh": "",
      "usg": "",
      "usgStDt": "",
      "usgEnDt": "",
      "usgUnt": "",
      "srvCmmtPrd": "",
      "srvPenalty": "",
      "srvCmmtRmn": "",
      "srvEnt": "",
      "rebtEn": "",
      "rebtZh": "",
      "rebtAmt": "",
      "monthlyTermRate": "",
      "m2mRate": "",
      "plnTy": "",
      "plnSubTy": "",
      "cntrStDt": "",
      "cntrEnDt": "",
      "cntrDur": "",
      "cmmtInd": "",
      "seasInd": "",
      "suppInd": "",
      "summInd": ""
    },
    "nowTv": {
      "srvCd": "",
      "StDt": "",
      "EnDt": "",
      "fee": "",
      "desnEn": "",
      "desnZh": "",
      "longDesn1En": "",
      "longDesn2En": "",
      "longDesn1Zh": "",
      "longDesn2Zh": "",
      "tncEn": "",
      "tncZh": "",
      "usg": "",
      "usgStDt": "",
      "usgEnDt": "",
      "usgUnt": "",
      "srvCmmtPrd": "",
      "srvPenalty": "",
      "srvCmmtRmn": "",
      "srvEnt": "",
      "rebtEn": "",
      "rebtZh": "",
      "rebtAmt": "",
      "monthlyTermRate": "",
      "m2mRate": "",
      "plnTy": "",
      "plnSubTy": "",
      "cntrStDt": "",
      "cntrEnDt": "",
      "cntrDur": "",
      "cmmtInd": "",
      "seasInd": "",
      "suppInd": "",
      "summInd": ""
    },
    "nowSports": {
      "srvCd": "",
      "StDt": "",
      "EnDt": "",
      "fee": "",
      "desnEn": "",
      "desnZh": "",
      "longDesn1En": "",
      "longDesn2En": "",
      "longDesn1Zh": "",
      "longDesn2Zh": "",
      "tncEn": "",
      "tncZh": "",
      "usg": "",
      "usgStDt": "",
      "usgEnDt": "",
      "usgUnt": "",
      "srvCmmtPrd": "",
      "srvPenalty": "",
      "srvCmmtRmn": "",
      "srvEnt": "",
      "rebtEn": "",
      "rebtZh": "",
      "rebtAmt": "",
      "monthlyTermRate": "",
      "m2mRate": "",
      "plnTy": "",
      "plnSubTy": "",
      "cntrStDt": "",
      "cntrEnDt": "",
      "cntrDur": "",
      "cmmtInd": "",
      "seasInd": "",
      "suppInd": "",
      "summInd": ""
    },
    "moov": {
      "srvCd": "",
      "StDt": "",
      "EnDt": "",
      "fee": "",
      "desnEn": "",
      "desnZh": "",
      "longDesn1En": "",
      "longDesn2En": "",
      "longDesn1Zh": "",
      "longDesn2Zh": "",
      "tncEn": "",
      "tncZh": "",
      "usg": "",
      "usgStDt": "",
      "usgEnDt": "",
      "usgUnt": "",
      "srvCmmtPrd": "",
      "srvPenalty": "",
      "srvCmmtRmn": "",
      "srvEnt": "",
      "rebtEn": "",
      "rebtZh": "",
      "rebtAmt": "",
      "monthlyTermRate": "",
      "m2mRate": "",
      "plnTy": "",
      "plnSubTy": "",
      "cntrStDt": "",
      "cntrEnDt": "",
      "cntrDur": "",
      "cmmtInd": "",
      "seasInd": "",
      "suppInd": "",
      "summInd": ""
    },
    "optVasAry": [],
    "usgLastUpdTs": "",
    "g3DisplayServiceItemResultDTO": {
      "displayServiceItemList": [
        {
          "region": "LOCAL",
          "serviceType": "Local Entitlement-based Data Plan",
          "show": null,
          "showInMainPage": "Y",
          "displayOrder": 0,
          "titleLevel1Eng": "Local Mobile Data",
          "titleLevel1Chi": "本地流動數據",
          "titleLevel2Eng": "Total Used",
          "titleLevel2Chi": "已用用量",
          "titleLevel1Display": null,
          "titleLevel2Display": null,
          "planType": "BASIC",
          "usageDescription": {
            "showWarningIcon": "N",
            "textDisplay": null,
            "wapEntitleDisplay": null,
            "textEng": "33% (2324MB) Remaining",
            "textChi": "尚餘: 33% (2324MB)",
            "textColorR": 0,
            "textColorG": 0,
            "textColorB": 0,
            "htmlEng": null,
            "htmlChi": null
          },
          "usageBar": {
            "showBar": "Y",
            "colorR": 0,
            "colorG": 204,
            "colorB": 0,
            "barPercent": 33
          },
          "asOfDateEng": "Latest Update",
          "asOfDateChi": "最新紀錄",
          "asOfDateDisplay": null,
          "additionalMessage": null,
          "usageType": null,
          "allowTopup": "N",
          "otherVAS": null,
          "quotaTopupInfo": null,
          "refInfo": null
        }
      ],
      "acctType": null,
      "rtnCode": null,
      "rtnMsg": null
    },
    "g3GetUnbilledDailyRoamWifiResultDTO": {
      "rtnCd": null,
      "rtnMsg": null,
      "resultRefCode": null,
      "g3UnbilledDailyRoamWifiDTOArr": []
    },
    "g3UsageQuotaDTO": {
      "asOfDate": "20160527",
      "localDataQuotaBaseInd": null,
      "roamingDataQuotaBaseInd": null,
      "localDataQtaName": null,
      "roamingDataQtaName": null,
      "mobileDataRtnCd": null,
      "mobileDataRtnMsg": null,
      "mobileLocalDataUsage": "4.74",
      "mobileLocalDataQuota": null,
      "mobileLocalDataInitialQuota": null,
      "mobileLocalDataUnit": "GB",
      "mobileRoamingDataUsage": "0",
      "mobileRoamingDataInitialQuota": null,
      "mobileRoamingDataQuota": null,
      "mobileRoamingDataUnit": "KB",
      "mobileLocalDataRemaining": null,
      "mobileLocalDataRemainingInMB": null,
      "mobileLocalDataRemainingInPercent": null,
      "mobileLocalDataUsedInPercent": null,
      "nonMobileUsageEntitlementRtnCode": null,
      "nonMobileUsageEntitlementRtnMsg": null,
      "localVoicePeakOffpeakBasedInd": null,
      "localVoiceIntraUsage": null,
      "localVoiceIntraEntitlement": null,
      "localVoiceIntraUnit": null,
      "localVoiceInterUsage": "0",
      "localVoiceInterEntitlement": null,
      "localVoiceInterUnit": null,
      "localVoicePeakUsage": null,
      "localVoicePeakEntitlement": null,
      "localVoicePeakUnit": null,
      "localVoiceOffPeakUsage": null,
      "localVoiceOffPeakEntitlement": null,
      "localVoiceOffPeakUnit": null,
      "localVideoIntraUsage": null,
      "localVideoIntraEntitlement": null,
      "localVideoIntraUnit": null,
      "localVideoInterUsage": null,
      "localVideoInterEntitlement": null,
      "localVideoInterUnit": null,
      "localSMSIntraUsage": null,
      "localSMSIntraEntitlement": null,
      "localSMSInterUsage": "0",
      "localSMSInterEntitlement": null,
      "overseasSMSUsage": "0",
      "overseasSMSEntitlement": null,
      "nowTVUsage": null,
      "nowTVEntitlement": null,
      "nowTVUnit": null,
      "nowSportsUsage": null,
      "nowSportsEntitlement": null,
      "nowSportsUnit": null,
      "moovUsage": null,
      "moovEntitlement": null,
      "moovUnit": null,
      "localMMSIntraUsage": null,
      "localMMSIntraEntitlement": null,
      "localMMSIntraUnit": null,
      "localMMSInterUsage": null,
      "localMMSInterEntitlement": null,
      "localMMSInterUnit": null,
      "overseasMMSUsage": null,
      "overseasMMSEntitlement": null,
      "overseasMMSUnit": null,
      "emailUsage": null,
      "emailEntitlement": null,
      "emailUnit": null,
      "iddVoiceUsage": "0",
      "iddVoiceEntitlement": null,
      "iddVoiceUnit": null,
      "localBBUsage": "0",
      "localBBEntitlement": null,
      "localBBUnit": "KB",
      "roamBBUsage": "0",
      "roamBBEntitlement": null,
      "roamBBUnit": "KB",
      "roamSMSUsage": "0",
      "roamSMSEntitlement": null,
      "dataAsOfDate": "20160601",
      "primaryFlag": "P",
      "nxtBilCutoffDt": null
    },
    "g3SummUsageQuotaDTO": {
      "asOfDate": "20160527",
      "localDataQuotaBaseInd": null,
      "roamingDataQuotaBaseInd": null,
      "localDataQtaName": null,
      "roamingDataQtaName": null,
      "mobileDataRtnCd": null,
      "mobileDataRtnMsg": null,
      "mobileLocalDataUsage": "4.74",
      "mobileLocalDataQuota": null,
      "mobileLocalDataInitialQuota": null,
      "mobileLocalDataUnit": "GB",
      "mobileRoamingDataUsage": "0",
      "mobileRoamingDataInitialQuota": null,
      "mobileRoamingDataQuota": null,
      "mobileRoamingDataUnit": "KB",
      "mobileLocalDataRemaining": null,
      "mobileLocalDataRemainingInMB": null,
      "mobileLocalDataRemainingInPercent": null,
      "mobileLocalDataUsedInPercent": null,
      "nonMobileUsageEntitlementRtnCode": null,
      "nonMobileUsageEntitlementRtnMsg": null,
      "localVoicePeakOffpeakBasedInd": null,
      "localVoiceIntraUsage": null,
      "localVoiceIntraEntitlement": null,
      "localVoiceIntraUnit": null,
      "localVoiceInterUsage": "0",
      "localVoiceInterEntitlement": null,
      "localVoiceInterUnit": null,
      "localVoicePeakUsage": null,
      "localVoicePeakEntitlement": null,
      "localVoicePeakUnit": null,
      "localVoiceOffPeakUsage": null,
      "localVoiceOffPeakEntitlement": null,
      "localVoiceOffPeakUnit": null,
      "localVideoIntraUsage": null,
      "localVideoIntraEntitlement": null,
      "localVideoIntraUnit": null,
      "localVideoInterUsage": null,
      "localVideoInterEntitlement": null,
      "localVideoInterUnit": null,
      "localSMSIntraUsage": null,
      "localSMSIntraEntitlement": null,
      "localSMSInterUsage": "0",
      "localSMSInterEntitlement": null,
      "overseasSMSUsage": "0",
      "overseasSMSEntitlement": null,
      "nowTVUsage": null,
      "nowTVEntitlement": null,
      "nowTVUnit": null,
      "nowSportsUsage": null,
      "nowSportsEntitlement": null,
      "nowSportsUnit": null,
      "moovUsage": null,
      "moovEntitlement": null,
      "moovUnit": null,
      "localMMSIntraUsage": null,
      "localMMSIntraEntitlement": null,
      "localMMSIntraUnit": null,
      "localMMSInterUsage": null,
      "localMMSInterEntitlement": null,
      "localMMSInterUnit": null,
      "overseasMMSUsage": null,
      "overseasMMSEntitlement": null,
      "overseasMMSUnit": null,
      "emailUsage": null,
      "emailEntitlement": null,
      "emailUnit": null,
      "iddVoiceUsage": "0",
      "iddVoiceEntitlement": null,
      "iddVoiceUnit": null,
      "localBBUsage": "0",
      "localBBEntitlement": null,
      "localBBUnit": "KB",
      "roamBBUsage": "0",
      "roamBBEntitlement": null,
      "roamBBUnit": "KB",
      "roamSMSUsage": "0",
      "roamSMSEntitlement": null,
      "dataAsOfDate": "20160601",
      "primaryFlag": "N",
      "nxtBilCutoffDt": null
    },
    "g3AcctBomNextBillDateDTO": {
      "acctNum": null,
      "bomNextBillDate": null,
      "result": {
        "resultRefCode": null,
        "errMsg": null,
        "errCode": null
      },
      "bomStartBillDate": null
    }
  },
  "oTtlEntMB": "7168",
  "oMthlyPkgMB": "6144",
  "oEntExpDT": "20160602000000",
  "oVbpCustTy": "3",
  "oBomBillStDt": "",
  "oBomBillEnDt": "",
  "oG3BoostUpOffer1DTOAry": [],
  "oG3RechargeHistDTOAry": [
    {
      "transactionDateTime": "20160526000000",
      "transactionDate": null,
      "quotaName": null,
      "boostUpOfferId": null,
      "engDescription": null,
      "rechargeValue": null,
      "rechargeValueInMB": "1024",
      "rechargeAmount": "50",
      "lastUpdBy": null,
      "lastUpdSC": null
    }
  ],
  "iApi": "PLAN_MOB",
  "iGwtGud": "794AB5C8E7884079",
  "iMyFrm": "",
  "oHgg": "",
  "oNxUrl": "",
  "oDuct": null,
  "reply": {
    "code": "RC_SUCC",
    "cargo": null
  },
  "serverTS": "20160527182423"
}