{
  "iApi": "PLAN_TV",
  "iGwtGud": "8774C840475F4104",
  "iLoginId": "mrleewaiming@hotmail.com",
  "iMyFrm": "",
  "iSubnRec": {
    "acctNum": "1093205947",
    "acct_ty": "",
    "alias": " ",
    "aloneDialup": "N",
    "assoc": "Y",
    "auth_ph": "",
    "bsn": "10776709",
    "createPsn": "pcspbat",
    "createTs": "20120504230302",
    "cusNum": "1301923",
    "custRid": 606964,
    "datCd": " ",
    "domainTy": "P",
    "eyeGrp": " ",
    "fsa": "10776709",
    "inMipMig": false,
    "ind2l2b": "N",
    "indEye": "N",
    "indPcd": "N",
    "indTv": "Y",
    "instAdr": "FT D 2/F 22 NASSAU STREET, MEI FOO SUN CHUEN, LAI CHI KOK KOWLOON",
    "ivr_pwd": "",
    "lastupdPsn": "mrleewaiming@hotmail.com",
    "lastupdTs": "20170524162346",
    "lob": "TV",
    "netLoginId": "vi93065411",
    "priMob": " ",
    "refFsa2l2b": " ",
    "rev": 2,
    "rid": 1047533,
    "sipSubr": " ",
    "srvId": "10776709",
    "srvNum": "1093205947",
    "storeTy": "",
    "systy": "IMS",
    "tariff": " ",
    "tos": "IMS",
    "wipCust": "N"
  },
  "oDuct": null,
  "oHgg": "",
  "oNowDollBal": "",
  "oNowDollExp": "",
  "oNxUrl": "",
  "oPlanAry": [
    {
      "EnDt": "",
      "StDt": "20151226",
      "cmmtInd": "N",
      "cntrDur": "",
      "cntrEnDt": "",
      "cntrStDt": "",
      "desnEn": "Special Bonus Pack",
      "desnZh": "",
      "fee": "",
      "longDesn1En": "",
      "longDesn1Zh": "",
      "longDesn2En": "",
      "longDesn2Zh": "",
      "m2mRate": "",
      "monthlyTermRate": "",
      "plnSubTy": "",
      "plnTy": "",
      "rebtAmt": "",
      "rebtEn": "",
      "rebtZh": "",
      "seasInd": "N",
      "srvCd": "",
      "srvCmmtPrd": "",
      "srvCmmtRmn": "",
      "srvEnt": "",
      "srvPenalty": "",
      "summInd": "Y",
      "suppInd": "N",
      "tncEn": "",
      "tncZh": "",
      "usg": "",
      "usgEnDt": "",
      "usgStDt": "",
      "usgUnt": ""
    },
    {
      "EnDt": "",
      "StDt": "",
      "cmmtInd": "Y",
      "cntrDur": "",
      "cntrEnDt": "",
      "cntrStDt": "",
      "desnEn": "Special Bonus Pack for Mass",
      "desnZh": "",
      "fee": "",
      "longDesn1En": "",
      "longDesn1Zh": "",
      "longDesn2En": "",
      "longDesn2Zh": "",
      "m2mRate": "",
      "monthlyTermRate": "",
      "plnSubTy": "",
      "plnTy": "",
      "rebtAmt": "",
      "rebtEn": "",
      "rebtZh": "",
      "seasInd": "N",
      "srvCd": "",
      "srvCmmtPrd": "",
      "srvCmmtRmn": "",
      "srvEnt": "",
      "srvPenalty": "",
      "summInd": "N",
      "suppInd": "Y",
      "tncEn": "",
      "tncZh": "",
      "usg": "",
      "usgEnDt": "",
      "usgStDt": "",
      "usgUnt": ""
    },
    {
      "EnDt": "20171203",
      "StDt": "20151226",
      "cmmtInd": "N",
      "cntrDur": "",
      "cntrEnDt": "",
      "cntrStDt": "",
      "desnEn": "24M Sports Flexi Combo",
      "desnZh": "",
      "fee": "",
      "longDesn1En": "",
      "longDesn1Zh": "",
      "longDesn2En": "",
      "longDesn2Zh": "",
      "m2mRate": "",
      "monthlyTermRate": "",
      "plnSubTy": "",
      "plnTy": "",
      "rebtAmt": "",
      "rebtEn": "",
      "rebtZh": "",
      "seasInd": "N",
      "srvCd": "",
      "srvCmmtPrd": "23",
      "srvCmmtRmn": "",
      "srvEnt": "",
      "srvPenalty": "1390",
      "summInd": "Y",
      "suppInd": "N",
      "tncEn": "",
      "tncZh": "",
      "usg": "",
      "usgEnDt": "",
      "usgStDt": "",
      "usgUnt": ""
    },
    {
      "EnDt": "",
      "StDt": "",
      "cmmtInd": "Y",
      "cntrDur": "",
      "cntrEnDt": "",
      "cntrStDt": "",
      "desnEn": "Sports Pack",
      "desnZh": "",
      "fee": "",
      "longDesn1En": "",
      "longDesn1Zh": "",
      "longDesn2En": "",
      "longDesn2Zh": "",
      "m2mRate": "",
      "monthlyTermRate": "",
      "plnSubTy": "",
      "plnTy": "",
      "rebtAmt": "",
      "rebtEn": "",
      "rebtZh": "",
      "seasInd": "N",
      "srvCd": "",
      "srvCmmtPrd": "",
      "srvCmmtRmn": "",
      "srvEnt": "",
      "srvPenalty": "",
      "summInd": "N",
      "suppInd": "Y",
      "tncEn": "",
      "tncZh": "",
      "usg": "",
      "usgEnDt": "",
      "usgStDt": "",
      "usgUnt": ""
    },
    {
      "EnDt": "",
      "StDt": "",
      "cmmtInd": "Y",
      "cntrDur": "",
      "cntrEnDt": "",
      "cntrStDt": "",
      "desnEn": "Knowledge Pack",
      "desnZh": "",
      "fee": "",
      "longDesn1En": "",
      "longDesn1Zh": "",
      "longDesn2En": "",
      "longDesn2Zh": "",
      "m2mRate": "",
      "monthlyTermRate": "",
      "plnSubTy": "",
      "plnTy": "",
      "rebtAmt": "",
      "rebtEn": "",
      "rebtZh": "",
      "seasInd": "N",
      "srvCd": "",
      "srvCmmtPrd": "",
      "srvCmmtRmn": "",
      "srvEnt": "",
      "srvPenalty": "",
      "summInd": "N",
      "suppInd": "Y",
      "tncEn": "",
      "tncZh": "",
      "usg": "",
      "usgEnDt": "",
      "usgStDt": "",
      "usgUnt": ""
    },
    {
      "EnDt": "",
      "StDt": "",
      "cmmtInd": "Y",
      "cntrDur": "",
      "cntrEnDt": "",
      "cntrStDt": "",
      "desnEn": "Junior Pack",
      "desnZh": "",
      "fee": "",
      "longDesn1En": "",
      "longDesn1Zh": "",
      "longDesn2En": "",
      "longDesn2Zh": "",
      "m2mRate": "",
      "monthlyTermRate": "",
      "plnSubTy": "",
      "plnTy": "",
      "rebtAmt": "",
      "rebtEn": "",
      "rebtZh": "",
      "seasInd": "N",
      "srvCd": "",
      "srvCmmtPrd": "",
      "srvCmmtRmn": "",
      "srvEnt": "",
      "srvPenalty": "",
      "summInd": "N",
      "suppInd": "Y",
      "tncEn": "",
      "tncZh": "",
      "usg": "",
      "usgEnDt": "",
      "usgStDt": "",
      "usgUnt": ""
    }
  ],
"oVasAry": [
    {
      "EnDt": "20170611",
      "StDt": "20170520",
      "cmmtInd": "",
      "cntrDur": "",
      "cntrEnDt": "",
      "cntrStDt": "",
      "desnEn": "nowTV-DTTSTBrental($0)nocommit",
      "desnZh": "nowTV-DTTSTBrental($0)nocommit",
      "fee": "0",
      "longDesn1En": "",
      "longDesn1Zh": "",
      "longDesn2En": "",
      "longDesn2Zh": "",
      "m2mRate": "",
      "monthlyTermRate": "",
      "plnSubTy": "",
      "plnTy": "",
      "rebtAmt": "",
      "rebtEn": "",
      "rebtZh": "",
      "seasInd": "",
      "srvCd": "",
      "srvCmmtPrd": "",
      "srvCmmtRmn": "",
      "srvEnt": "",
      "srvPenalty": "",
      "summInd": "",
      "suppInd": "",
      "tncEn": "",
      "tncZh": "",
      "unit": "",
      "usg": "",
      "usgEnDt": "",
      "usgStDt": ""
    },
    {
      "EnDt": "20170615",
      "StDt": "20170518",
      "cmmtInd": "",
      "cntrDur": "",
      "cntrEnDt": "",
      "cntrStDt": "",
      "desnEn": "100MUpgradePack",
      "desnZh": "100MUpgradePack",
      "fee": "38",
      "longDesn1En": "",
      "longDesn1Zh": "",
      "longDesn2En": "",
      "longDesn2Zh": "",
      "m2mRate": "",
      "monthlyTermRate": "",
      "plnSubTy": "",
      "plnTy": "",
      "rebtAmt": "",
      "rebtEn": "",
      "rebtZh": "",
      "seasInd": "",
      "srvCd": "",
      "srvCmmtPrd": "",
      "srvCmmtRmn": "",
      "srvEnt": "",
      "srvPenalty": "",
      "summInd": "",
      "suppInd": "",
      "tncEn": "",
      "tncZh": "",
      "unit": "",
      "usg": "",
      "usgEnDt": "",
      "usgStDt": ""
    },
    {
      "EnDt": "20170710",
      "StDt": "20170604",
      "cmmtInd": "Y",
      "cntrDur": "",
      "cntrEnDt": "",
      "cntrStDt": "",
      "desnEn": "SPACE25GBPromotionPlan(PCD)",
      "desnZh": "SPACE25GBPromotionPlan(PCD)",
      "fee": "0",
      "longDesn1En": "",
      "longDesn1Zh": "",
      "longDesn2En": "",
      "longDesn2Zh": "",
      "m2mRate": "",
      "monthlyTermRate": "",
      "plnSubTy": "",
      "plnTy": "",
      "rebtAmt": "",
      "rebtEn": "",
      "rebtZh": "",
      "seasInd": "N",
      "srvCd": "",
      "srvCmmtPrd": "",
      "srvCmmtRmn": "",
      "srvEnt": "",
      "srvPenalty": "",
      "summInd": "N",
      "suppInd": "Y",
      "tncEn": "",
      "tncZh": "",
      "unit": "",
      "usg": "",
      "usgEnDt": "",
      "usgStDt": ""
    },
    {
      "EnDt": "20170711",
      "StDt": "20170605",
      "cmmtInd": "",
      "cntrDur": "",
      "cntrEnDt": "",
      "cntrStDt": "",
      "desnEn": "uHubPromotion10GBVAS",
      "desnZh": "uHubPromotion10GBVAS",
      "fee": "0",
      "longDesn1En": "",
      "longDesn1Zh": "",
      "longDesn2En": "",
      "longDesn2Zh": "",
      "m2mRate": "",
      "monthlyTermRate": "",
      "plnSubTy": "",
      "plnTy": "",
      "rebtAmt": "",
      "rebtEn": "",
      "rebtZh": "",
      "seasInd": "",
      "srvCd": "",
      "srvCmmtPrd": "",
      "srvCmmtRmn": "",
      "srvEnt": "",
      "srvPenalty": "",
      "summInd": "",
      "suppInd": "",
      "tncEn": "",
      "tncZh": "",
      "unit": "",
      "usg": "",
      "usgEnDt": "",
      "usgStDt": ""
    },
    {
      "EnDt": "20170712",
      "StDt": "20170605",
      "cmmtInd": "",
      "cntrDur": "",
      "cntrEnDt": "",
      "cntrStDt": "",
      "desnEn": "PCGuard",
      "desnZh": "PCGuard",
      "fee": "4",
      "longDesn1En": "",
      "longDesn1Zh": "",
      "longDesn2En": "",
      "longDesn2Zh": "",
      "m2mRate": "",
      "monthlyTermRate": "",
      "plnSubTy": "",
      "plnTy": "",
      "rebtAmt": "",
      "rebtEn": "",
      "rebtZh": "",
      "seasInd": "",
      "srvCd": "",
      "srvCmmtPrd": "",
      "srvCmmtRmn": "",
      "srvEnt": "",
      "srvPenalty": "",
      "summInd": "",
      "suppInd": "",
      "tncEn": "",
      "tncZh": "",
      "unit": "",
      "usg": "",
      "usgEnDt": "",
      "usgStDt": ""
    }
  ],
  "oPonCvg": false,
  "reply": {
    "cargo": null,
    "code": "RC_SUCC"
  },
  "serverTS": "20170606111941"
}